<?xml version="1.0" encoding="utf-8"?>
<!-- Generated by IcoMoon.io -->
<!DOCTYPE svg PUBLIC "-//W3C//DTD SVG 1.1//EN" "http://www.w3.org/Graphics/SVG/1.1/DTD/svg11.dtd">
<svg version="1.1" xmlns="http://www.w3.org/2000/svg" xmlns:xlink="http://www.w3.org/1999/xlink" width="35" height="35" viewBox="0 0 35 35">
<rect fill="#5f6f81" x="0" y="0" width="35" height="35"></rect>
<path d="M33.915 29.784l-8.29-7.051c-0.857-0.771-1.774-1.125-2.514-1.091 1.957-2.292 3.139-5.266 3.139-8.517 0-7.249-5.876-13.125-13.125-13.125s-13.125 5.876-13.125 13.125 5.876 13.125 13.125 13.125c3.25 0 6.224-1.182 8.517-3.139-0.034 0.74 0.32 1.657 1.091 2.514l7.051 8.29c1.207 1.341 3.179 1.454 4.383 0.251s1.090-3.175-0.251-4.383zM13.125 21.875c-4.832 0-8.75-3.918-8.75-8.75s3.918-8.75 8.75-8.75 8.75 3.918 8.75 8.75-3.917 8.75-8.75 8.75z" fill="#ffffff"></path>
</svg>
